{
  "edges": [
    { "attributes": { "Type": "PRODUCED" }, "from": "7", "_id": "6", "to": "0" },
    { "attributes": { "Type": "PRODUCED" }, "from": "7", "_id": "14", "to": "9" },
    { "attributes": { "Type": "PRODUCED" }, "from": "7", "_id": "21", "to": "10" },
    { "attributes": { "Type": "PRODUCED" }, "from": "45", "_id": "58", "to": "37" },
    { "attributes": { "Type": "PRODUCED" }, "from": "72", "_id": "108", "to": "81" },
    { "attributes": { "Type": "PRODUCED" }, "from": "27", "_id": "107", "to": "81" },
    { "attributes": { "Type": "PRODUCED" }, "from": "110", "_id": "145", "to": "105" },
    { "attributes": { "Type": "PRODUCED" }, "from": "6", "_id": "158", "to": "116" },
    { "attributes": { "Type": "PRODUCED" }, "from": "5", "_id": "157", "to": "116" },
    { "attributes": { "Type": "PRODUCED" }, "from": "7", "_id": "159", "to": "116" },
    { "attributes": { "Type": "PRODUCED" }, "from": "7", "_id": "173", "to": "121" },
    { "attributes": { "Type": "PRODUCED" }, "from": "6", "_id": "180", "to": "128" },
    { "attributes": { "Type": "PRODUCED" }, "from": "7", "_id": "181", "to": "128" },
    { "attributes": { "Type": "PRODUCED" }, "from": "5", "_id": "179", "to": "128" },
    { "attributes": { "Type": "PRODUCED" }, "from": "156", "_id": "223", "to": "154" }
  ],
  "nodes": [
    { "attributes": { "born": 1952, "labels": ["Person"], "name": "Joel Silver" }, "_id": "7" },
    {
      "attributes": {
        "labels": ["Movie"],
        "released": 1999,
        "tagline": "Welcome to the Real World",
        "title": "The Matrix",
        "votes": 4928
      },
      "_id": "0"
    },
    {
      "attributes": {
        "labels": ["Movie"],
        "released": 2003,
        "tagline": "Free your mind",
        "title": "The Matrix Reloaded",
        "votes": 1457
      },
      "_id": "9"
    },
    {
      "attributes": {
        "labels": ["Movie"],
        "released": 2003,
        "tagline": "Everything that has a beginning has an end",
        "title": "The Matrix Revolutions",
        "votes": 1168
      },
      "_id": "10"
    },
    { "attributes": { "born": 1957, "labels": ["Person"], "name": "Cameron Crowe" }, "_id": "45" },
    {
      "attributes": {
        "labels": ["Movie"],
        "released": 2000,
        "tagline": "The rest of his life begins now.",
        "title": "Jerry Maguire",
        "votes": 105
      },
      "_id": "37"
    },
    { "attributes": { "born": 1941, "labels": ["Person"], "name": "Nora Ephron" }, "_id": "72" },
    {
      "attributes": {
        "labels": ["Movie"],
        "released": 1998,
        "tagline": "Can two friends sleep together and still love each other in the morning?",
        "title": "When Harry Met Sally",
        "votes": 29
      },
      "_id": "81"
    },
    { "attributes": { "born": 1947, "labels": ["Person"], "name": "Rob Reiner" }, "_id": "27" },
    { "attributes": { "born": 1961, "labels": ["Person"], "name": "Stefan Arndt" }, "_id": "110" },
    {
      "attributes": {
        "labels": ["Movie"],
        "released": 2012,
        "tagline": "Everything is connected",
        "title": "Cloud Atlas",
        "votes": 108
      },
      "_id": "105"
    },
    { "attributes": { "born": 1965, "labels": ["Person"], "name": "Lana Wachowski" }, "_id": "6" },
    {
      "attributes": {
        "labels": ["Movie"],
        "released": 2006,
        "tagline": "Freedom! Forever!",
        "title": "V for Vendetta",
        "votes": 26
      },
      "_id": "116"
    },
    { "attributes": { "born": 1967, "labels": ["Person"], "name": "Lilly Wachowski" }, "_id": "5" },
    {
      "attributes": {
        "labels": ["Movie"],
        "released": 2008,
        "tagline": "Speed has no limits",
        "title": "Speed Racer",
        "votes": 29
      },
      "_id": "121"
    },
    {
      "attributes": {
        "labels": ["Movie"],
        "released": 2009,
        "tagline": "Prepare to enter a secret world of assassins",
        "title": "Ninja Assassin",
        "votes": 14
      },
      "_id": "128"
    },
    { "attributes": { "born": 1949, "labels": ["Person"], "name": "Nancy Meyers" }, "_id": "156" },
    {
      "attributes": { "labels": ["Movie"], "released": 2003, "title": "Something's Gotta Give", "votes": 54 },
      "_id": "154"
    }
  ]
}
