{
  "queryID": "59bba9a165c3f8cd327d24a07741be14",
  "result": {
    "payload": {
      "edges": [
        { "attributes": { "Type": "WROTE" }, "from": "28", "_id": "39", "to": "15" },
        { "attributes": { "Type": "WROTE" }, "from": "36", "_id": "47", "to": "29" },
        { "attributes": { "Type": "WROTE" }, "from": "45", "_id": "59", "to": "37" },
        { "attributes": { "Type": "WROTE" }, "from": "72", "_id": "109", "to": "81" },
        { "attributes": { "Type": "WROTE" }, "from": "109", "_id": "144", "to": "105" },
        { "attributes": { "Type": "WROTE" }, "from": "6", "_id": "161", "to": "116" },
        { "attributes": { "Type": "WROTE" }, "from": "5", "_id": "160", "to": "116" },
        { "attributes": { "Type": "WROTE" }, "from": "6", "_id": "172", "to": "121" },
        { "attributes": { "Type": "WROTE" }, "from": "5", "_id": "171", "to": "121" },
        { "attributes": { "Type": "WROTE" }, "from": "156", "_id": "224", "to": "154" }
      ],
      "nodes": [
        {
          "attributes": {
            "labels": ["Movie"],
            "released": 1992,
            "tagline": "In the heart of the nation's capital, in a courthouse of the U.S. government, one man will stop at nothing to keep his honor, and one will stop at nothing to find the truth.",
            "title": "A Few Good Men",
            "votes": 352
          },
          "_id": "15"
        },
        { "attributes": { "born": 1961, "labels": ["Person"], "name": "Aaron Sorkin" }, "_id": "28" },
        {
          "attributes": {
            "labels": ["Movie"],
            "released": 1986,
            "tagline": "I feel the need, the need for speed.",
            "title": "Top Gun",
            "votes": 419
          },
          "_id": "29"
        },
        { "attributes": { "born": 1941, "labels": ["Person"], "name": "Jim Cash" }, "_id": "36" },
        {
          "attributes": {
            "labels": ["Movie"],
            "released": 2000,
            "tagline": "The rest of his life begins now.",
            "title": "Jerry Maguire",
            "votes": 105
          },
          "_id": "37"
        },
        { "attributes": { "born": 1957, "labels": ["Person"], "name": "Cameron Crowe" }, "_id": "45" },
        {
          "attributes": {
            "labels": ["Movie"],
            "released": 1998,
            "tagline": "Can two friends sleep together and still love each other in the morning?",
            "title": "When Harry Met Sally",
            "votes": 29
          },
          "_id": "81"
        },
        { "attributes": { "born": 1941, "labels": ["Person"], "name": "Nora Ephron" }, "_id": "72" },
        {
          "attributes": {
            "labels": ["Movie"],
            "released": 2012,
            "tagline": "Everything is connected",
            "title": "Cloud Atlas",
            "votes": 108
          },
          "_id": "105"
        },
        { "attributes": { "born": 1969, "labels": ["Person"], "name": "David Mitchell" }, "_id": "109" },
        {
          "attributes": {
            "labels": ["Movie"],
            "released": 2006,
            "tagline": "Freedom! Forever!",
            "title": "V for Vendetta",
            "votes": 26
          },
          "_id": "116"
        },
        { "attributes": { "born": 1965, "labels": ["Person"], "name": "Lana Wachowski" }, "_id": "6" },
        { "attributes": { "born": 1967, "labels": ["Person"], "name": "Lilly Wachowski" }, "_id": "5" },
        {
          "attributes": {
            "labels": ["Movie"],
            "released": 2008,
            "tagline": "Speed has no limits",
            "title": "Speed Racer",
            "votes": 29
          },
          "_id": "121"
        },
        {
          "attributes": { "labels": ["Movie"], "released": 2003, "title": "Something's Gotta Give", "votes": 54 },
          "_id": "154"
        },
        { "attributes": { "born": 1949, "labels": ["Person"], "name": "Nancy Meyers" }, "_id": "156" }
      ]
    },
    "type": "nodelink"
  }
}
