{
  "edges": [
    {
      "from": "worker/1",
      "_id": "onderdeel_van/1100",
      "_key": "1100",
      "_rev": "_cYl_jTO--O",
      "to": "worker/3",
      "attributes": {}
    },
    {
      "from": "worker/3",
      "_id": "onderdeel_van/662",
      "_key": "662",
      "_rev": "_cYl_jR2--G",
      "to": "worker/1",
      "attributes": {}
    }
  ],
  "nodes": [
    {
      "_id": "worker/1",
      "_key": "1",
      "_rev": "_cYl-Qmq-_H",
      "label": "worker",
      "attributes": {
        "name": "John Doe",
        "age": 30,
        "height": 170.2
      }
    },
    {
      "_id": "worker/3",
      "_key": "2",
      "_rev": "_cYl-Qmq--5",
      "label": "worker",
      "attributes": {
        "name": "Bob Johnson",
        "age": 35
      }
    },
    {
      "_id": "worker/2",
      "_key": "2",
      "_rev": "_cYl-Qmq--5",
      "label": "worker",
      "attributes": {
        "age": 38,
        "height": 195.2
      }
    }
  ]
}
